{
  "player1": {
    "x": 9,
    "y": 1,
    "direction": "bottom",
    "status": "active"
  },
  "player2": {
    "x": 9,
    "y": 14,
    "direction": "top",
    "status": "destroyed"
  },
  "bullets": [
    {
      "id": "aAUxJugRAVzxvBGS",
      "direction": "bottom",
      "x": 9,
      "y": 14
    }
  ],
  "explosions": [
    {
      "x": 9,
      "y": 14
    }
  ]
}
